<?xml version="1.0" encoding="utf-8"?>
<!-- Generator: Adobe Illustrator 15.0.0, SVG Export Plug-In . SVG Version: 6.00 Build 0)  -->
<!DOCTYPE svg PUBLIC "-//W3C//DTD SVG 1.1//EN" "http://www.w3.org/Graphics/SVG/1.1/DTD/svg11.dtd">
<svg version="1.1" id="圖層_1" xmlns="http://www.w3.org/2000/svg" xmlns:xlink="http://www.w3.org/1999/xlink" x="0px" y="0px"
	 width="24px" height="24px" viewBox="0 0 24 24" enable-background="new 0 0 24 24" xml:space="preserve">
<line fill="none" stroke="#999999" stroke-width="1.167" stroke-miterlimit="10" x1="6.923" y1="7.47" x2="16.893" y2="17.441"/>
<line fill="none" stroke="#999999" stroke-width="1.167" stroke-miterlimit="10" x1="16.91" y1="7.454" x2="6.907" y2="17.456"/>
<circle fill="none" stroke="#999999" stroke-width="1.167" stroke-miterlimit="10" cx="11.91" cy="12.006" r="10"/>
</svg>
