<?xml version="1.0" encoding="utf-8"?>
<!-- Generator: Adobe Illustrator 15.0.0, SVG Export Plug-In . SVG Version: 6.00 Build 0)  -->
<!DOCTYPE svg PUBLIC "-//W3C//DTD SVG 1.1//EN" "http://www.w3.org/Graphics/SVG/1.1/DTD/svg11.dtd">
<svg version="1.1" id="圖層_1" xmlns="http://www.w3.org/2000/svg" xmlns:xlink="http://www.w3.org/1999/xlink" x="0px" y="0px"
	 width="24px" height="24px" viewBox="4 4 24 24" enable-background="new 4 4 24 24" xml:space="preserve">
<path fill="#004405" d="M16.016,26.7c-0.446,0-1.103-0.188-1.692-1.086c-0.498-0.759-1.01-1.513-1.521-2.265
	c-1.428-2.1-2.904-4.269-4.075-6.569c-1.223-2.397-1.101-5.225,0.328-7.563c1.495-2.446,4.086-3.911,6.931-3.917
	c2.881,0,5.479,1.473,6.97,3.941c1.441,2.388,1.539,5.269,0.259,7.706c-1.19,2.26-2.64,4.408-4.041,6.486
	c-0.485,0.721-0.973,1.441-1.448,2.168C17.125,26.509,16.464,26.7,16.016,26.7z"/>
<path fill="#FFFFFF" d="M16.008,9.138v0.7c-1.832,0-3.334,1.486-3.349,3.313c-0.007,0.892,0.335,1.732,0.961,2.368
	c0.626,0.635,1.463,0.988,2.356,0.995c1.858,0,3.359-1.485,3.376-3.312c0.008-0.882-0.334-1.72-0.963-2.358
	c-0.632-0.643-1.471-1-2.361-1.006L16.008,9.138z"/>
</svg>
