<?xml version="1.0" encoding="utf-8"?>
<!-- Generator: Adobe Illustrator 15.0.0, SVG Export Plug-In . SVG Version: 6.00 Build 0)  -->
<!DOCTYPE svg PUBLIC "-//W3C//DTD SVG 1.1//EN" "http://www.w3.org/Graphics/SVG/1.1/DTD/svg11.dtd">
<svg version="1.1" id="圖層_1" xmlns="http://www.w3.org/2000/svg" xmlns:xlink="http://www.w3.org/1999/xlink" x="0px" y="0px"
	 width="24px" height="24px" viewBox="0 0 24 24" enable-background="new 0 0 24 24" xml:space="preserve">
<path fill="#004405" d="M12,23C5.934,23,1,18.066,1,12C1,5.934,5.934,1,12,1c6.066,0,11,4.934,11,11C23,18.066,18.066,23,12,23
	 M12,2.64c-5.159,0-9.359,4.2-9.359,9.36c0,5.16,4.201,9.361,9.359,9.361c5.158,0,9.361-4.201,9.361-9.361
	C21.361,6.839,17.158,2.64,12,2.64"/>
<path fill="#004405" d="M11.932,11.914c-1.949,0-3.534-1.583-3.534-3.532s1.584-3.536,3.534-3.536c1.949,0,3.535,1.585,3.535,3.536
	C15.467,10.331,13.878,11.914,11.932,11.914 M11.932,6.485c-1.045,0-1.896,0.85-1.896,1.897c0,1.044,0.85,1.896,1.896,1.896
	c1.046,0,1.896-0.849,1.896-1.896C13.827,7.336,12.98,6.485,11.932,6.485"/>
<g>
	<g>
		<g>
			<g>
				<defs>
					<path id="SVGID_1_" d="M1.822,12.002c0,5.623,4.557,10.18,10.178,10.18c5.621,0,10.182-4.557,10.182-10.18
						c0-5.62-4.561-10.179-10.182-10.179C6.378,1.823,1.822,6.382,1.822,12.002"/>
				</defs>
				<clipPath id="SVGID_2_">
					<use xlink:href="#SVGID_1_"  overflow="visible"/>
				</clipPath>
				<path clip-path="url(#SVGID_2_)" fill="#004405" d="M17.32,25.551H6.831v-7.742c0-2.891,2.352-5.244,5.244-5.244
					c2.892,0,5.247,2.354,5.247,5.244L17.32,25.551L17.32,25.551z M8.47,23.91h7.212v-6.102c0-1.988-1.619-3.604-3.605-3.604
					c-1.987,0-3.604,1.615-3.604,3.604L8.47,23.91L8.47,23.91z"/>
			</g>
		</g>
	</g>
</g>
</svg>
